\relax 
\catcode`"\active
\catcode`<\active
\catcode`>\active
\@nameuse{es@quoting}
\select@language{spanish}
\@writefile{toc}{\select@language{spanish}}
\@writefile{lof}{\select@language{spanish}}
\@writefile{lot}{\select@language{spanish}}
\@writefile{toc}{\contentsline {section}{\numberline {1}Introducci\'on }{1}}
\@writefile{toc}{\contentsline {subsection}{\numberline {1.1}Probabilidades y Cuantiles}{1}}
\@writefile{toc}{\contentsline {subsection}{\numberline {1.2}La distribuci\'on normal estandar}{1}}
\@writefile{toc}{\contentsline {section}{\numberline {2}Pruebas para diferencias en promedios en dos grupos}{2}}
\@writefile{toc}{\contentsline {subsection}{\numberline {2.1}Prueba $Z$}{3}}
